[
	{
		"name": "Burial from a Different Dimension",
		"type": "spell"
	},
	{
		"name": "Charge of the Light Brigade",
		"type": "spell"
	},
	{
		"name": "Infernoid Antra",
		"type": "monster"
	},
	{
		"name": "Infernoid Attondel",
		"type": "monster"
	},
	{
		"name": "Infernoid Decatron",
		"type": "monster"
	},
	{
		"name": "Infernoid Devyaty",
		"type": "monster"
	},
	{
		"name": "Infernoid Harmadik",
		"type": "monster"
	},
	{
		"name": "Infernoid Onuncu",
		"type": "monster"
	},
	{
		"name": "Infernoid Patrulea",
		"type": "monster"
	},
	{
		"name": "Infernoid Pirmais",
		"type": "monster"
	},
	{
		"name": "Infernoid Seitsemas",
		"type": "monster"
	},
	{
		"name": "Lyla, Lightsworn Sorceress",
		"type": "monster"
	},
	{
		"name": "Monster Gate",
		"type": "spell"
	},
	{
		"name": "One for One",
		"type": "spell"
	},
	{
		"name": "Raiden, Hand of the Lightsworn",
		"type": "monster"
	},
	{
		"name": "Reasoning",
		"type": "spell"
	},
	{
		"name": "Time-Space Trap Hole",
		"type": "trap"
	},
	{
		"name": "Torrential Tribute",
		"type": "trap"
	},
	{
		"name": "Upstart Goblin",
		"type": "spell"
	},
	{
		"name": "Void Seer",
		"type": "spell"
	}
]